{
    "url": "https://crossengage-public.gitlab.io/login-gallery/",
    "images": [
        {
            "name": "heroes2023.jpg"
        },
        {
            "name": "args-quote.jpg"
        }
    ]
}
